You are now connected to database "tpch" as user "tomas".
SET
                                                                       QUERY PLAN                                                                       
--------------------------------------------------------------------------------------------------------------------------------------------------------
 GroupAggregate  (cost=37617120.39..37619934.69 rows=200 width=72) (actual time=48306.484..48407.066 rows=5 loops=1)
   Group Key: o.o_orderpriority
   ->  Sort  (cost=37617120.39..37618057.83 rows=374973 width=64) (actual time=48281.236..48351.157 rows=519546 loops=1)
         Sort Key: o.o_orderpriority
         Sort Method: external merge  Disk: 13248kB
         ->  Subquery Scan on o  (cost=0.00..37568303.09 rows=374973 width=64) (actual time=46.191..47775.911 rows=519546 loops=1)
               Filter: ((o.o_orderdate >= '1992-01-01'::date) AND (o.o_orderdate < '1992-04-01 00:00:00'::timestamp without time zone) AND (SubPlan 1))
               Rows Removed by Filter: 14480454
               ->  Result  (cost=0.00..5695619.34 rows=149989100 width=374) (actual time=33.128..44100.985 rows=15000000 loops=1)
                     ->  ProjectSet  (cost=0.00..820973.59 rows=149989100 width=32) (actual time=33.116..36644.777 rows=15000000 loops=1)
                           ->  Seq Scan on customers  (cost=0.00..59778.91 rows=1499891 width=44) (actual time=7.485..444.239 rows=1500000 loops=1)
               SubPlan 1
                 ->  Subquery Scan on l  (cost=0.00..6.52 rows=33 width=0) (actual time=0.004..0.004 rows=1 loops=566745)
                       Filter: (l.l_commitdate < l.l_receiptdate)
                       Rows Removed by Filter: 1
                       ->  Result  (cost=0.00..5.27 rows=100 width=366) (actual time=0.003..0.004 rows=1 loops=566745)
                             ->  ProjectSet  (cost=0.00..0.52 rows=100 width=32) (actual time=0.001..0.001 rows=1 loops=566745)
                                   ->  Result  (cost=0.00..0.01 rows=1 width=0) (actual time=0.000..0.000 rows=1 loops=566745)
 Planning time: 3.514 ms
 Execution time: 48409.379 ms
(20 rows)



You are now connected to database "tpch" as user "tomas".
SET
                                                                       QUERY PLAN                                                                       
--------------------------------------------------------------------------------------------------------------------------------------------------------
 GroupAggregate  (cost=37617120.39..37619934.69 rows=200 width=72) (actual time=48486.948..48586.957 rows=5 loops=1)
   Group Key: o.o_orderpriority
   ->  Sort  (cost=37617120.39..37618057.83 rows=374973 width=64) (actual time=48461.827..48531.255 rows=519546 loops=1)
         Sort Key: o.o_orderpriority
         Sort Method: external merge  Disk: 13248kB
         ->  Subquery Scan on o  (cost=0.00..37568303.09 rows=374973 width=64) (actual time=50.656..47951.850 rows=519546 loops=1)
               Filter: ((o.o_orderdate >= '1992-01-01'::date) AND (o.o_orderdate < '1992-04-01 00:00:00'::timestamp without time zone) AND (SubPlan 1))
               Rows Removed by Filter: 14480454
               ->  Result  (cost=0.00..5695619.34 rows=149989100 width=374) (actual time=32.216..44381.930 rows=15000000 loops=1)
                     ->  ProjectSet  (cost=0.00..820973.59 rows=149989100 width=32) (actual time=32.203..36927.574 rows=15000000 loops=1)
                           ->  Seq Scan on customers  (cost=0.00..59778.91 rows=1499891 width=44) (actual time=3.589..456.050 rows=1500000 loops=1)
               SubPlan 1
                 ->  Subquery Scan on l  (cost=0.00..6.52 rows=33 width=0) (actual time=0.004..0.004 rows=1 loops=566745)
                       Filter: (l.l_commitdate < l.l_receiptdate)
                       Rows Removed by Filter: 1
                       ->  Result  (cost=0.00..5.27 rows=100 width=366) (actual time=0.003..0.004 rows=1 loops=566745)
                             ->  ProjectSet  (cost=0.00..0.52 rows=100 width=32) (actual time=0.001..0.001 rows=1 loops=566745)
                                   ->  Result  (cost=0.00..0.01 rows=1 width=0) (actual time=0.000..0.000 rows=1 loops=566745)
 Planning time: 2.543 ms
 Execution time: 48589.403 ms
(20 rows)



You are now connected to database "tpch" as user "tomas".
SET
                                                                       QUERY PLAN                                                                       
--------------------------------------------------------------------------------------------------------------------------------------------------------
 GroupAggregate  (cost=37617120.39..37619934.69 rows=200 width=72) (actual time=48200.173..48299.722 rows=5 loops=1)
   Group Key: o.o_orderpriority
   ->  Sort  (cost=37617120.39..37618057.83 rows=374973 width=64) (actual time=48175.251..48242.597 rows=519546 loops=1)
         Sort Key: o.o_orderpriority
         Sort Method: external merge  Disk: 13248kB
         ->  Subquery Scan on o  (cost=0.00..37568303.09 rows=374973 width=64) (actual time=47.515..47695.370 rows=519546 loops=1)
               Filter: ((o.o_orderdate >= '1992-01-01'::date) AND (o.o_orderdate < '1992-04-01 00:00:00'::timestamp without time zone) AND (SubPlan 1))
               Rows Removed by Filter: 14480454
               ->  Result  (cost=0.00..5695619.34 rows=149989100 width=374) (actual time=33.341..44101.995 rows=15000000 loops=1)
                     ->  ProjectSet  (cost=0.00..820973.59 rows=149989100 width=32) (actual time=33.329..36648.284 rows=15000000 loops=1)
                           ->  Seq Scan on customers  (cost=0.00..59778.91 rows=1499891 width=44) (actual time=8.763..439.901 rows=1500000 loops=1)
               SubPlan 1
                 ->  Subquery Scan on l  (cost=0.00..6.52 rows=33 width=0) (actual time=0.004..0.004 rows=1 loops=566745)
                       Filter: (l.l_commitdate < l.l_receiptdate)
                       Rows Removed by Filter: 1
                       ->  Result  (cost=0.00..5.27 rows=100 width=366) (actual time=0.003..0.003 rows=1 loops=566745)
                             ->  ProjectSet  (cost=0.00..0.52 rows=100 width=32) (actual time=0.001..0.001 rows=1 loops=566745)
                                   ->  Result  (cost=0.00..0.01 rows=1 width=0) (actual time=0.000..0.000 rows=1 loops=566745)
 Planning time: 3.348 ms
 Execution time: 48302.031 ms
(20 rows)



You are now connected to database "tpch" as user "tomas".
SET
                                                                       QUERY PLAN                                                                       
--------------------------------------------------------------------------------------------------------------------------------------------------------
 GroupAggregate  (cost=37617120.39..37619934.69 rows=200 width=72) (actual time=48347.843..48449.226 rows=5 loops=1)
   Group Key: o.o_orderpriority
   ->  Sort  (cost=37617120.39..37618057.83 rows=374973 width=64) (actual time=48322.415..48392.768 rows=519546 loops=1)
         Sort Key: o.o_orderpriority
         Sort Method: external merge  Disk: 13248kB
         ->  Subquery Scan on o  (cost=0.00..37568303.09 rows=374973 width=64) (actual time=51.008..47822.665 rows=519546 loops=1)
               Filter: ((o.o_orderdate >= '1992-01-01'::date) AND (o.o_orderdate < '1992-04-01 00:00:00'::timestamp without time zone) AND (SubPlan 1))
               Rows Removed by Filter: 14480454
               ->  Result  (cost=0.00..5695619.34 rows=149989100 width=374) (actual time=32.016..44313.987 rows=15000000 loops=1)
                     ->  ProjectSet  (cost=0.00..820973.59 rows=149989100 width=32) (actual time=32.003..36807.838 rows=15000000 loops=1)
                           ->  Seq Scan on customers  (cost=0.00..59778.91 rows=1499891 width=44) (actual time=3.937..430.063 rows=1500000 loops=1)
               SubPlan 1
                 ->  Subquery Scan on l  (cost=0.00..6.52 rows=33 width=0) (actual time=0.004..0.004 rows=1 loops=566745)
                       Filter: (l.l_commitdate < l.l_receiptdate)
                       Rows Removed by Filter: 1
                       ->  Result  (cost=0.00..5.27 rows=100 width=366) (actual time=0.003..0.003 rows=1 loops=566745)
                             ->  ProjectSet  (cost=0.00..0.52 rows=100 width=32) (actual time=0.001..0.001 rows=1 loops=566745)
                                   ->  Result  (cost=0.00..0.01 rows=1 width=0) (actual time=0.000..0.000 rows=1 loops=566745)
 Planning time: 2.629 ms
 Execution time: 48451.907 ms
(20 rows)



You are now connected to database "tpch" as user "tomas".
SET
                                                                       QUERY PLAN                                                                       
--------------------------------------------------------------------------------------------------------------------------------------------------------
 GroupAggregate  (cost=37617120.39..37619934.69 rows=200 width=72) (actual time=48328.312..48430.264 rows=5 loops=1)
   Group Key: o.o_orderpriority
   ->  Sort  (cost=37617120.39..37618057.83 rows=374973 width=64) (actual time=48302.657..48372.398 rows=519546 loops=1)
         Sort Key: o.o_orderpriority
         Sort Method: external merge  Disk: 13248kB
         ->  Subquery Scan on o  (cost=0.00..37568303.09 rows=374973 width=64) (actual time=53.346..47799.440 rows=519546 loops=1)
               Filter: ((o.o_orderdate >= '1992-01-01'::date) AND (o.o_orderdate < '1992-04-01 00:00:00'::timestamp without time zone) AND (SubPlan 1))
               Rows Removed by Filter: 14480454
               ->  Result  (cost=0.00..5695619.34 rows=149989100 width=374) (actual time=41.165..44256.294 rows=15000000 loops=1)
                     ->  ProjectSet  (cost=0.00..820973.59 rows=149989100 width=32) (actual time=41.152..36809.470 rows=15000000 loops=1)
                           ->  Seq Scan on customers  (cost=0.00..59778.91 rows=1499891 width=44) (actual time=11.366..463.249 rows=1500000 loops=1)
               SubPlan 1
                 ->  Subquery Scan on l  (cost=0.00..6.52 rows=33 width=0) (actual time=0.004..0.004 rows=1 loops=566745)
                       Filter: (l.l_commitdate < l.l_receiptdate)
                       Rows Removed by Filter: 1
                       ->  Result  (cost=0.00..5.27 rows=100 width=366) (actual time=0.003..0.003 rows=1 loops=566745)
                             ->  ProjectSet  (cost=0.00..0.52 rows=100 width=32) (actual time=0.001..0.001 rows=1 loops=566745)
                                   ->  Result  (cost=0.00..0.01 rows=1 width=0) (actual time=0.000..0.000 rows=1 loops=566745)
 Planning time: 3.789 ms
 Execution time: 48432.714 ms
(20 rows)



