You are now connected to database "tpch" as user "tomas".
SET
                                                                                                                                      QUERY PLAN                                                                                                                                      
--------------------------------------------------------------------------------------------------------------------------------------------------------------------------------------------------------------------------------------------------------------------------------------
 GroupAggregate  (cost=11334230927.99..11334247597.91 rows=200 width=60) (actual time=1229477.480..1229971.900 rows=2 loops=1)
   Group Key: ol.l_shipmode
   ->  Sort  (cost=11334230927.99..11334233011.48 rows=833396 width=108) (actual time=1228948.286..1229291.572 rows=2524940 loops=1)
         Sort Key: ol.l_shipmode
         Sort Method: external merge  Disk: 91488kB
         ->  Subquery Scan on ol  (cost=0.00..11334052117.15 rows=833396 width=108) (actual time=23.172..1226719.908 rows=2524940 loops=1)
               Filter: ((ol.l_shipmode = ANY ('{RAIL,"REG AIR"}'::bpchar[])) AND (ol.l_commitdate < ol.l_receiptdate) AND (ol.l_shipdate < ol.l_commitdate) AND (ol.l_receiptdate >= '1992-01-01'::date) AND (ol.l_receiptdate < '1993-01-01 00:00:00'::timestamp without time zone))
               Rows Removed by Filter: 597512962
               ->  Result  (cost=0.00..7958799442.15 rows=150011230000 width=430) (actual time=23.047..1149285.737 rows=600037902 loops=1)
                     ->  ProjectSet  (cost=0.00..833266017.15 rows=150011230000 width=96) (actual time=23.041..559188.852 rows=600037902 loops=1)
                           ->  Result  (cost=0.00..56957901.90 rows=1500112300 width=374) (actual time=23.037..450782.615 rows=150000000 loops=1)
                                 ->  ProjectSet  (cost=0.00..8204252.15 rows=1500112300 width=32) (actual time=23.027..366537.069 rows=150000000 loops=1)
                                       ->  Seq Scan on customers  (cost=0.00..591182.23 rows=15001123 width=42) (actual time=5.757..4389.606 rows=15000000 loops=1)
 Planning time: 2.577 ms
 Execution time: 1229989.232 ms
(15 rows)



You are now connected to database "tpch" as user "tomas".
SET
                                                                                                                                      QUERY PLAN                                                                                                                                      
--------------------------------------------------------------------------------------------------------------------------------------------------------------------------------------------------------------------------------------------------------------------------------------
 GroupAggregate  (cost=11334230927.99..11334247597.91 rows=200 width=60) (actual time=1235492.810..1235983.257 rows=2 loops=1)
   Group Key: ol.l_shipmode
   ->  Sort  (cost=11334230927.99..11334233011.48 rows=833396 width=108) (actual time=1234954.171..1235306.903 rows=2524940 loops=1)
         Sort Key: ol.l_shipmode
         Sort Method: external merge  Disk: 91488kB
         ->  Subquery Scan on ol  (cost=0.00..11334052117.15 rows=833396 width=108) (actual time=32.590..1232653.986 rows=2524940 loops=1)
               Filter: ((ol.l_shipmode = ANY ('{RAIL,"REG AIR"}'::bpchar[])) AND (ol.l_commitdate < ol.l_receiptdate) AND (ol.l_shipdate < ol.l_commitdate) AND (ol.l_receiptdate >= '1992-01-01'::date) AND (ol.l_receiptdate < '1993-01-01 00:00:00'::timestamp without time zone))
               Rows Removed by Filter: 597512962
               ->  Result  (cost=0.00..7958799442.15 rows=150011230000 width=430) (actual time=32.461..1154090.529 rows=600037902 loops=1)
                     ->  ProjectSet  (cost=0.00..833266017.15 rows=150011230000 width=96) (actual time=32.455..560575.991 rows=600037902 loops=1)
                           ->  Result  (cost=0.00..56957901.90 rows=1500112300 width=374) (actual time=32.451..453323.171 rows=150000000 loops=1)
                                 ->  ProjectSet  (cost=0.00..8204252.15 rows=1500112300 width=32) (actual time=32.441..369091.641 rows=150000000 loops=1)
                                       ->  Seq Scan on customers  (cost=0.00..591182.23 rows=15001123 width=42) (actual time=5.515..4566.066 rows=15000000 loops=1)
 Planning time: 2.355 ms
 Execution time: 1236001.068 ms
(15 rows)



You are now connected to database "tpch" as user "tomas".
SET
                                                                                                                                      QUERY PLAN                                                                                                                                      
--------------------------------------------------------------------------------------------------------------------------------------------------------------------------------------------------------------------------------------------------------------------------------------
 GroupAggregate  (cost=11334230927.99..11334247597.91 rows=200 width=60) (actual time=1233721.640..1234213.469 rows=2 loops=1)
   Group Key: ol.l_shipmode
   ->  Sort  (cost=11334230927.99..11334233011.48 rows=833396 width=108) (actual time=1233196.074..1233541.634 rows=2524940 loops=1)
         Sort Key: ol.l_shipmode
         Sort Method: external merge  Disk: 91488kB
         ->  Subquery Scan on ol  (cost=0.00..11334052117.15 rows=833396 width=108) (actual time=22.772..1231025.205 rows=2524940 loops=1)
               Filter: ((ol.l_shipmode = ANY ('{RAIL,"REG AIR"}'::bpchar[])) AND (ol.l_commitdate < ol.l_receiptdate) AND (ol.l_shipdate < ol.l_commitdate) AND (ol.l_receiptdate >= '1992-01-01'::date) AND (ol.l_receiptdate < '1993-01-01 00:00:00'::timestamp without time zone))
               Rows Removed by Filter: 597512962
               ->  Result  (cost=0.00..7958799442.15 rows=150011230000 width=430) (actual time=22.641..1151913.578 rows=600037902 loops=1)
                     ->  ProjectSet  (cost=0.00..833266017.15 rows=150011230000 width=96) (actual time=22.635..564732.894 rows=600037902 loops=1)
                           ->  Result  (cost=0.00..56957901.90 rows=1500112300 width=374) (actual time=22.632..452375.846 rows=150000000 loops=1)
                                 ->  ProjectSet  (cost=0.00..8204252.15 rows=1500112300 width=32) (actual time=22.621..368369.989 rows=150000000 loops=1)
                                       ->  Seq Scan on customers  (cost=0.00..591182.23 rows=15001123 width=42) (actual time=5.283..4578.318 rows=15000000 loops=1)
 Planning time: 2.878 ms
 Execution time: 1234313.229 ms
(15 rows)



You are now connected to database "tpch" as user "tomas".
SET
                                                                                                                                      QUERY PLAN                                                                                                                                      
--------------------------------------------------------------------------------------------------------------------------------------------------------------------------------------------------------------------------------------------------------------------------------------
 GroupAggregate  (cost=11334230927.99..11334247597.91 rows=200 width=60) (actual time=1229384.779..1229876.990 rows=2 loops=1)
   Group Key: ol.l_shipmode
   ->  Sort  (cost=11334230927.99..11334233011.48 rows=833396 width=108) (actual time=1228847.937..1229196.149 rows=2524940 loops=1)
         Sort Key: ol.l_shipmode
         Sort Method: external merge  Disk: 91488kB
         ->  Subquery Scan on ol  (cost=0.00..11334052117.15 rows=833396 width=108) (actual time=23.147..1226628.729 rows=2524940 loops=1)
               Filter: ((ol.l_shipmode = ANY ('{RAIL,"REG AIR"}'::bpchar[])) AND (ol.l_commitdate < ol.l_receiptdate) AND (ol.l_shipdate < ol.l_commitdate) AND (ol.l_receiptdate >= '1992-01-01'::date) AND (ol.l_receiptdate < '1993-01-01 00:00:00'::timestamp without time zone))
               Rows Removed by Filter: 597512962
               ->  Result  (cost=0.00..7958799442.15 rows=150011230000 width=430) (actual time=23.023..1148371.333 rows=600037902 loops=1)
                     ->  ProjectSet  (cost=0.00..833266017.15 rows=150011230000 width=96) (actual time=23.017..559988.894 rows=600037902 loops=1)
                           ->  Result  (cost=0.00..56957901.90 rows=1500112300 width=374) (actual time=23.013..452487.807 rows=150000000 loops=1)
                                 ->  ProjectSet  (cost=0.00..8204252.15 rows=1500112300 width=32) (actual time=23.003..368055.617 rows=150000000 loops=1)
                                       ->  Seq Scan on customers  (cost=0.00..591182.23 rows=15001123 width=42) (actual time=5.706..4535.578 rows=15000000 loops=1)
 Planning time: 2.580 ms
 Execution time: 1229897.279 ms
(15 rows)



You are now connected to database "tpch" as user "tomas".
SET
                                                                                                                                      QUERY PLAN                                                                                                                                      
--------------------------------------------------------------------------------------------------------------------------------------------------------------------------------------------------------------------------------------------------------------------------------------
 GroupAggregate  (cost=11334230927.99..11334247597.91 rows=200 width=60) (actual time=1232306.212..1232802.537 rows=2 loops=1)
   Group Key: ol.l_shipmode
   ->  Sort  (cost=11334230927.99..11334233011.48 rows=833396 width=108) (actual time=1231774.982..1232121.993 rows=2524940 loops=1)
         Sort Key: ol.l_shipmode
         Sort Method: external merge  Disk: 91488kB
         ->  Subquery Scan on ol  (cost=0.00..11334052117.15 rows=833396 width=108) (actual time=22.647..1229464.667 rows=2524940 loops=1)
               Filter: ((ol.l_shipmode = ANY ('{RAIL,"REG AIR"}'::bpchar[])) AND (ol.l_commitdate < ol.l_receiptdate) AND (ol.l_shipdate < ol.l_commitdate) AND (ol.l_receiptdate >= '1992-01-01'::date) AND (ol.l_receiptdate < '1993-01-01 00:00:00'::timestamp without time zone))
               Rows Removed by Filter: 597512962
               ->  Result  (cost=0.00..7958799442.15 rows=150011230000 width=430) (actual time=22.527..1151361.866 rows=600037902 loops=1)
                     ->  ProjectSet  (cost=0.00..833266017.15 rows=150011230000 width=96) (actual time=22.521..560856.345 rows=600037902 loops=1)
                           ->  Result  (cost=0.00..56957901.90 rows=1500112300 width=374) (actual time=22.517..453116.067 rows=150000000 loops=1)
                                 ->  ProjectSet  (cost=0.00..8204252.15 rows=1500112300 width=32) (actual time=22.496..368549.023 rows=150000000 loops=1)
                                       ->  Seq Scan on customers  (cost=0.00..591182.23 rows=15001123 width=42) (actual time=5.206..4533.564 rows=15000000 loops=1)
 Planning time: 6.873 ms
 Execution time: 1232821.814 ms
(15 rows)



