You are now connected to database "tpch" as user "tomas".
SET
                                                                            QUERY PLAN                                                                             
-------------------------------------------------------------------------------------------------------------------------------------------------------------------
 GroupAggregate  (cost=373948.00..374350.10 rows=14622 width=72) (actual time=48625.313..48667.400 rows=7 loops=1)
   Group Key: ("substring"((customers.c_phone)::text, 1, 2))
   InitPlan 1 (returns $1)
     ->  Finalize Aggregate  (cost=153637.04..153637.05 rows=1 width=32) (actual time=2437.506..2437.506 rows=1 loops=1)
           ->  Gather  (cost=153636.82..153637.03 rows=2 width=32) (actual time=2437.408..2437.589 rows=3 loops=1)
                 Workers Planned: 2
                 Workers Launched: 2
                 ->  Partial Aggregate  (cost=152636.82..152636.83 rows=1 width=32) (actual time=2396.054..2396.054 rows=1 loops=3)
                       ->  Parallel Seq Scan on customers customers_1  (cost=0.00..152512.57 rows=49700 width=6) (actual time=0.037..2344.294 rows=318204 loops=3)
                             Filter: ((c_acctbal > 0.00) AND ("substring"((c_phone)::text, 1, 2) = ANY ('{30,17,25,10,22,15,21}'::text[])))
                             Rows Removed by Filter: 931796
   ->  Sort  (cost=220310.94..220347.50 rows=14622 width=38) (actual time=48618.105..48633.614 rows=159337 loops=1)
         Sort Key: ("substring"((customers.c_phone)::text, 1, 2))
         Sort Method: external merge  Disk: 3128kB
         ->  Seq Scan on customers  (cost=0.00..219299.40 rows=14622 width=38) (actual time=2445.502..48265.103 rows=159337 loops=1)
               Filter: ((c_acctbal > $1) AND (c_orders = '{}'::nested_order[]) AND ("substring"((c_phone)::text, 1, 2) = ANY ('{30,17,25,10,22,15,21}'::text[])))
               Rows Removed by Filter: 3590663
 Planning time: 28.981 ms
 Execution time: 48668.217 ms
(19 rows)



You are now connected to database "tpch" as user "tomas".
SET
                                                                            QUERY PLAN                                                                             
-------------------------------------------------------------------------------------------------------------------------------------------------------------------
 GroupAggregate  (cost=373948.00..374350.10 rows=14622 width=72) (actual time=48723.963..48763.067 rows=7 loops=1)
   Group Key: ("substring"((customers.c_phone)::text, 1, 2))
   InitPlan 1 (returns $1)
     ->  Finalize Aggregate  (cost=153637.04..153637.05 rows=1 width=32) (actual time=2459.137..2459.137 rows=1 loops=1)
           ->  Gather  (cost=153636.82..153637.03 rows=2 width=32) (actual time=2459.045..2459.235 rows=3 loops=1)
                 Workers Planned: 2
                 Workers Launched: 2
                 ->  Partial Aggregate  (cost=152636.82..152636.83 rows=1 width=32) (actual time=2438.671..2438.671 rows=1 loops=3)
                       ->  Parallel Seq Scan on customers customers_1  (cost=0.00..152512.57 rows=49700 width=6) (actual time=3.616..2388.553 rows=318204 loops=3)
                             Filter: ((c_acctbal > 0.00) AND ("substring"((c_phone)::text, 1, 2) = ANY ('{30,17,25,10,22,15,21}'::text[])))
                             Rows Removed by Filter: 931796
   ->  Sort  (cost=220310.94..220347.50 rows=14622 width=38) (actual time=48717.275..48732.923 rows=159337 loops=1)
         Sort Key: ("substring"((customers.c_phone)::text, 1, 2))
         Sort Method: external merge  Disk: 3128kB
         ->  Seq Scan on customers  (cost=0.00..219299.40 rows=14622 width=38) (actual time=2473.438..48358.369 rows=159337 loops=1)
               Filter: ((c_acctbal > $1) AND (c_orders = '{}'::nested_order[]) AND ("substring"((c_phone)::text, 1, 2) = ANY ('{30,17,25,10,22,15,21}'::text[])))
               Rows Removed by Filter: 3590663
 Planning time: 41.045 ms
 Execution time: 48763.898 ms
(19 rows)



You are now connected to database "tpch" as user "tomas".
SET
                                                                            QUERY PLAN                                                                             
-------------------------------------------------------------------------------------------------------------------------------------------------------------------
 GroupAggregate  (cost=373948.00..374350.10 rows=14622 width=72) (actual time=48232.454..48269.408 rows=7 loops=1)
   Group Key: ("substring"((customers.c_phone)::text, 1, 2))
   InitPlan 1 (returns $1)
     ->  Finalize Aggregate  (cost=153637.04..153637.05 rows=1 width=32) (actual time=2451.798..2451.798 rows=1 loops=1)
           ->  Gather  (cost=153636.82..153637.03 rows=2 width=32) (actual time=2451.673..2451.863 rows=3 loops=1)
                 Workers Planned: 2
                 Workers Launched: 2
                 ->  Partial Aggregate  (cost=152636.82..152636.83 rows=1 width=32) (actual time=2403.670..2403.670 rows=1 loops=3)
                       ->  Parallel Seq Scan on customers customers_1  (cost=0.00..152512.57 rows=49700 width=6) (actual time=0.034..2350.965 rows=318204 loops=3)
                             Filter: ((c_acctbal > 0.00) AND ("substring"((c_phone)::text, 1, 2) = ANY ('{30,17,25,10,22,15,21}'::text[])))
                             Rows Removed by Filter: 931796
   ->  Sort  (cost=220310.94..220347.50 rows=14622 width=38) (actual time=48226.145..48241.314 rows=159337 loops=1)
         Sort Key: ("substring"((customers.c_phone)::text, 1, 2))
         Sort Method: external merge  Disk: 3128kB
         ->  Seq Scan on customers  (cost=0.00..219299.40 rows=14622 width=38) (actual time=2464.604..47882.124 rows=159337 loops=1)
               Filter: ((c_acctbal > $1) AND (c_orders = '{}'::nested_order[]) AND ("substring"((c_phone)::text, 1, 2) = ANY ('{30,17,25,10,22,15,21}'::text[])))
               Rows Removed by Filter: 3590663
 Planning time: 32.547 ms
 Execution time: 48270.446 ms
(19 rows)



You are now connected to database "tpch" as user "tomas".
SET
                                                                            QUERY PLAN                                                                             
-------------------------------------------------------------------------------------------------------------------------------------------------------------------
 GroupAggregate  (cost=373948.00..374350.10 rows=14622 width=72) (actual time=48330.587..48367.952 rows=7 loops=1)
   Group Key: ("substring"((customers.c_phone)::text, 1, 2))
   InitPlan 1 (returns $1)
     ->  Finalize Aggregate  (cost=153637.04..153637.05 rows=1 width=32) (actual time=2453.133..2453.133 rows=1 loops=1)
           ->  Gather  (cost=153636.82..153637.03 rows=2 width=32) (actual time=2452.954..2453.195 rows=3 loops=1)
                 Workers Planned: 2
                 Workers Launched: 2
                 ->  Partial Aggregate  (cost=152636.82..152636.83 rows=1 width=32) (actual time=2404.539..2404.540 rows=1 loops=3)
                       ->  Parallel Seq Scan on customers customers_1  (cost=0.00..152512.57 rows=49700 width=6) (actual time=0.073..2352.043 rows=318204 loops=3)
                             Filter: ((c_acctbal > 0.00) AND ("substring"((c_phone)::text, 1, 2) = ANY ('{30,17,25,10,22,15,21}'::text[])))
                             Rows Removed by Filter: 931796
   ->  Sort  (cost=220310.94..220347.50 rows=14622 width=38) (actual time=48324.212..48339.199 rows=159337 loops=1)
         Sort Key: ("substring"((customers.c_phone)::text, 1, 2))
         Sort Method: external merge  Disk: 3128kB
         ->  Seq Scan on customers  (cost=0.00..219299.40 rows=14622 width=38) (actual time=2465.996..47976.737 rows=159337 loops=1)
               Filter: ((c_acctbal > $1) AND (c_orders = '{}'::nested_order[]) AND ("substring"((c_phone)::text, 1, 2) = ANY ('{30,17,25,10,22,15,21}'::text[])))
               Rows Removed by Filter: 3590663
 Planning time: 40.777 ms
 Execution time: 48368.735 ms
(19 rows)



You are now connected to database "tpch" as user "tomas".
SET
                                                                            QUERY PLAN                                                                             
-------------------------------------------------------------------------------------------------------------------------------------------------------------------
 GroupAggregate  (cost=373948.00..374350.10 rows=14622 width=72) (actual time=48863.307..48902.828 rows=7 loops=1)
   Group Key: ("substring"((customers.c_phone)::text, 1, 2))
   InitPlan 1 (returns $1)
     ->  Finalize Aggregate  (cost=153637.04..153637.05 rows=1 width=32) (actual time=2468.614..2468.614 rows=1 loops=1)
           ->  Gather  (cost=153636.82..153637.03 rows=2 width=32) (actual time=2468.525..2468.687 rows=3 loops=1)
                 Workers Planned: 2
                 Workers Launched: 2
                 ->  Partial Aggregate  (cost=152636.82..152636.83 rows=1 width=32) (actual time=2432.303..2432.303 rows=1 loops=3)
                       ->  Parallel Seq Scan on customers customers_1  (cost=0.00..152512.57 rows=49700 width=6) (actual time=0.037..2381.826 rows=318204 loops=3)
                             Filter: ((c_acctbal > 0.00) AND ("substring"((c_phone)::text, 1, 2) = ANY ('{30,17,25,10,22,15,21}'::text[])))
                             Rows Removed by Filter: 931796
   ->  Sort  (cost=220310.94..220347.50 rows=14622 width=38) (actual time=48856.439..48872.377 rows=159337 loops=1)
         Sort Key: ("substring"((customers.c_phone)::text, 1, 2))
         Sort Method: external merge  Disk: 3128kB
         ->  Seq Scan on customers  (cost=0.00..219299.40 rows=14622 width=38) (actual time=2481.255..48511.186 rows=159337 loops=1)
               Filter: ((c_acctbal > $1) AND (c_orders = '{}'::nested_order[]) AND ("substring"((c_phone)::text, 1, 2) = ANY ('{30,17,25,10,22,15,21}'::text[])))
               Rows Removed by Filter: 3590663
 Planning time: 40.970 ms
 Execution time: 48903.599 ms
(19 rows)



